Data Analytic Workflow (Introduction)
…
rf_res <- tune_grid(
  rf_wf,
  resamples = folds,
  grid      = rf_grid,
  metrics   = cls_metrics,
  control   = control_grid(save_pred = TRUE)
)

Compare (pick by accuracy; you can use log_loss too)

collect_metrics(log_res) %>% arrange(desc(mean)) %>% print(n = 10)

# A tibble: 480 × 8
    penalty mixture .metric     .estimator  mean     n std_err .config          
      <dbl>   <dbl> <chr>       <chr>      <dbl> <int>   <dbl> <chr>            
 1 0.616        0.8 mn_log_loss multiclass  1.05     5 0.00198 pre0_mod113_post0
 2 0.616        1   mn_log_loss multiclass  1.05     5 0.00198 pre0_mod114_post0
 3 1            0.6 mn_log_loss multiclass  1.05     5 0.00198 pre0_mod118_post0
 4 1            0.8 mn_log_loss multiclass  1.05     5 0.00198 pre0_mod119_post0
 5 1            1   mn_log_loss multiclass  1.05     5 0.00198 pre0_mod120_post0
 6 1            0.4 mn_log_loss multiclass  1.04     5 0.00325 pre0_mod117_post0
 7 0.0001       0.2 roc_auc     hand_till   1        5 0       pre0_mod002_post0
 8 0.0001       0.6 roc_auc     hand_till   1        5 0       pre0_mod004_post0
 9 0.0001       0.8 roc_auc     hand_till   1        5 0       pre0_mod005_post0
10 0.000162     0.2 roc_auc     hand_till   1        5 0       pre0_mod008_post0
# ℹ 470 more rows

collect_metrics(rf_res)  %>% arrange(desc(mean)) %>% print(n = 10)

# A tibble: 100 × 8
    mtry min_n .metric .estimator  mean     n  std_err .config         
   <int> <int> <chr>   <chr>      <dbl> <int>    <dbl> <chr>           
 1     2     6 roc_auc hand_till  1.000     5 0.000258 pre0_mod01_post0
 2     2     8 roc_auc hand_till  1.000     5 0.000258 pre0_mod02_post0
 3     2    12 roc_auc hand_till  1.000     5 0.000258 pre0_mod03_post0
 4     2    16 roc_auc hand_till  1.000     5 0.000258 pre0_mod04_post0
 5     3    10 roc_auc hand_till  1.000     5 0.000258 pre0_mod05_post0
 6     3    13 roc_auc hand_till  1.000     5 0.000258 pre0_mod06_post0
 7     3    18 roc_auc hand_till  1.000     5 0.000258 pre0_mod07_post0
 8     4     5 roc_auc hand_till  1.000     5 0.000258 pre0_mod08_post0
 9     4     8 roc_auc hand_till  1.000     5 0.000258 pre0_mod09_post0
10     4    11 roc_auc hand_till  1.000     5 0.000258 pre0_mod10_post0
# ℹ 90 more rows
…
